{
		"phrases": {
		  "shop": {
			"staticCards": "Cartes statiques",
			"animatedCards": "Cartes animées",
			"search": "Nom",
			"sort": {
			  "priceAscending": "Prix croissant",
			  "priceDescending": "Prix décroissant",
			  "alphabetical": "Alphabétique"
			},
			"unpurchasable": "Afficher non achetable",
			"unowned": "Afficher non possédée",
			"owned": "Possédée",
			"equipped": "ÉQUIPÉ",
			"purchase": {
			  "canAfford": {
				"title": "Acheter :name:",
				"desc": "Êtes-vous sûr de vouloir acheter :name: pour :price:?",
				"yes": "Acheter",
				"no": "Non"
			  },
			  "cantAfford": {
				"title": "Acheter :name:",
				"desc": "Tu ne peux pas te permettre d'acheter :name:, cela coute :price:",
				"btn": "Compris"
			  }
			},
			"card": {
			  "unpurchasable": "Non achetable",
			  "level": "(lvl: :level:)",
			  "popup": {
				"title": "Non achetable",
				"desc": "Cette carte n'est pas achetable",
				"btn": "Compris"
			  },
			  "dontMeetRequirements": {
				"title": "Exigences de groupe",
				"desc": "Vous ne répondez pas aux exigences du groupe d'utilisateurs pour cette carte.",
				"btn:": "Compris"
			  },
			  "dontMeetLevel": {
				"title": "Exigence de niveau",
				"desc": "Vous devez être de niveau :level: pour acheter ceci.",
				"btn:": "Compris"
			  }
			}
		  },
		  "card": {
			"phrases": {
			  "suicide": "Des erreurs ont été commises...",
			  "world": "Ca fais mal, nan?",
			  "player": "Tu as été tué par"
			},
			"level": "Lvl. :level:",
			"suicide": "Suicide",
			"world": "World",
			"dmg": "Vous avait fait :dealtDmg: de dégats en :dealtHits: et reçu :receivedDmg: dégat en :receivedHits:.",
			"hits": {
			  "singular": "coup",
			  "plural": "coups"
			},
			"respawn": {
				"msg": "Réapparition dans :time:",
				"skip": {
					"msg": "Appuyez sur :key: pour réapparaître",
					"key": "ESPACE"
				},
				"plural": "secondes",
				"singular": "seconde"
			}
		  },
		  "killfeed": {
			"dmg": "Vous avez fait :dealtDmg: dégats en :dealtHits:.",
			"killed": "Vous avez tué",
			"level": "Niveau"
		  }
		}
	  }
